-
…
And furthermore, since we are only concerned with cumulative cases, let’s subdivide our dataframe even further:

covid_data = covid_data[!, [:County, Symbol("Cumulative Number of Positives")]]

62×2 DataFrame
 Row │ County       Cumulative Number of Positives
     │ String       Int64
─────┼─────────────────────────────────────────────
   1 │ Albany                                26171
   2 │ Allegany                               3641
   3 │ Bronx                                185752
   4 │ Broome                                19480
   5 │ Cattaraugus                            5957
   6 │ Cayuga                                 6846
   7 │ Chautauqua                             9307
   8 │ Chemung                                8068
  ⋮  │      ⋮                     ⋮
  56 │ Ulster                                14853
  57 │ Warren                                 4062
  58 │ Washington                             3365
  59 │ Wayne                                  6134
  60 │ Westchester                          135295
  61 │ Wyoming                                3669
  62 │ Yates                                  1223
                                    47 rows omitted
…
